{
  "required": true,
  "minVersion": "0.8",
  "package": "thor12022.this_not_that.mixin",
  "compatibilityLevel": "JAVA_8",
  "mixins": [
  	"LootableContainerBlockEntityMixin",
  	"PlayerManagerMixin"
  ],
  "client": [
    "BlockModelsMixin"
  ],
  "injectors": {
    "defaultRequire": 1
  }
}